…
## Industries of self-made millionaires in the 90s

I made a function for this to do a scatterplot with a trendline, but it
looks very bad, so i am opting for a ggridges again - i can adapt my q3
ggridges function to work here! I also decided to include the financial
sector, as it looked prominent when I had a look at the numbers.

``` r
# just having a look at the numbers
Billions %>% filter(self_made == "TRUE") %>% group_by(industry, year) %>% count()
```

    ## # A tibble: 53 × 3
    ## # Groups:   industry, year [53]
    ##    industry               year     n
    ##    <chr>                 <int> <int>
    ##  1 0                      1996     4
    ##  2 0                      2001     2
    ##  3 0                      2014     4
    ##  4 Constrution            1996     9
    ##  5 Constrution            2001     7
    ##  6 Constrution            2014    35
    ##  7 Consumer               1996    30
    ##  8 Consumer               2001    40
    ##  9 Consumer               2014   166
    ## 10 Diversified financial  1996    18
    ## # ℹ 43 more rows
…
